{
  "name": "shared-cart-state",
  "$schema": "../../../../node_modules/nx/schemas/project-schema.json",
  "projectType": "library",
  "sourceRoot": "libs/shared/cart/state/src",
  "prefix": "nx-example",
  "tags": ["scope:shared", "type:state"],
  "generators": {
    "@nx/angular:component": {
      "styleext": "scss"
    }
  },
  "targets": {
    "lint": {
      "executor": "@nx/eslint:lint"
    },
    "test": {
      "executor": "@nx/jest:jest",
      "options": {
        "jestConfig": "libs/shared/cart/state/jest.config.ts"
      },
      "outputs": ["{workspaceRoot}/coverage/libs/shared/cart/state"]
    }
  }
}
